com\mycompany\mavenproject3\controllers\AdminController.class
com\mycompany\mavenproject3\controllers\MainController.class
com\mycompany\mavenproject3\services\AdminService.class
com\mycompany\mavenproject3\model\Korisnik.class
com\mycompany\mavenproject3\repositories\KorisnikRepository.class
com\mycompany\mavenproject3\Application.class
com\mycompany\mavenproject3\repositories\UlogaRepository.class
com\mycompany\mavenproject3\services\AdminServiceImpl.class
com\mycompany\mavenproject3\model\Uloga.class
