com\mycompany\mavenproject3\model\Ocena.class
com\mycompany\mavenproject3\service\UserService.class
com\mycompany\mavenproject3\serviceImpl\ImplUcenikService.class
com\mycompany\mavenproject3\model\Ucenik.class
com\mycompany\mavenproject3\service\OdeljenjeService.class
com\mycompany\mavenproject3\controller\UciteljController.class
com\mycompany\mavenproject3\controller\LoginController.class
com\mycompany\mavenproject3\serviceImpl\UserServiceImpl.class
com\mycompany\mavenproject3\model\Korisnik.class
com\mycompany\mavenproject3\model\GodinaTest.class
com\mycompany\mavenproject3\model\Predmet.class
com\mycompany\mavenproject3\controller\UcenikController.class
com\mycompany\mavenproject3\repository\UcenikRepository.class
com\mycompany\mavenproject3\model\UcenikTest.class
com\mycompany\mavenproject3\repository\OdeljenjeRepository.class
com\mycompany\mavenproject3\serviceImpl\ImplOdeljenjeService.class
com\mycompany\mavenproject3\model\Odeljenje.class
com\mycompany\mavenproject3\Application.class
com\mycompany\mavenproject3\service\UcenikService.class
com\mycompany\mavenproject3\repository\GodinaRepository1.class
com\mycompany\mavenproject3\model\RasporedCasova.class
com\mycompany\mavenproject3\repository\GodinaRepository.class
com\mycompany\mavenproject3\repository\KorisnikRepository.class
com\mycompany\mavenproject3\model\OtvorenaVrata.class
com\mycompany\mavenproject3\repository\FunkcijaRepository.class
com\mycompany\mavenproject3\model\Direktor.class
com\mycompany\mavenproject3\model\Ucitelj.class
com\mycompany\mavenproject3\model\Funkcija.class
com\mycompany\mavenproject3\controller\MainController.class
com\mycompany\mavenproject3\model\Roditelj.class
com\mycompany\mavenproject3\model\Admin.class
